%YAML 1.1
%TAG !u! tag:unity3d.com,2011:
--- !u!1 &5848708049953165882
GameObject:
  m_ObjectHideFlags: 0
  m_CorrespondingSourceObject: {fileID: 0}
  m_PrefabInstance: {fileID: 0}
  m_PrefabAsset: {fileID: 0}
  serializedVersion: 6
  m_Component:
  - component: {fileID: 5848708049953165884}
  - component: {fileID: 5848708049953165887}
  - component: {fileID: 5848708049953165886}
  - component: {fileID: 5848708049953165881}
  - component: {fileID: 5848708049953165880}
  - component: {fileID: 5848708049953165883}
  m_Layer: 0
  m_Name: ThickStickyPlatform
  m_TagString: Slide
  m_Icon: {fileID: 0}
  m_NavMeshLayer: 0
  m_StaticEditorFlags: 0
  m_IsActive: 1
--- !u!4 &5848708049953165884
Transform:
  m_ObjectHideFlags: 0
  m_CorrespondingSourceObject: {fileID: 0}
  m_PrefabInstance: {fileID: 0}
  m_PrefabAsset: {fileID: 0}
  m_GameObject: {fileID: 5848708049953165882}
  m_LocalRotation: {x: -0, y: -0, z: 0.60876626, w: -0.7933496}
  m_LocalPosition: {x: -0.87753266, y: 3.6058092, z: 0}
  m_LocalScale: {x: 0.6826, y: 0.6826, z: 0.6826}
  m_Children: []
  m_Father: {fileID: 0}
  m_RootOrder: 0
  m_LocalEulerAnglesHint: {x: 0, y: 0, z: 284.999}
--- !u!1971053207 &5848708049953165887
SpriteShapeRenderer:
  m_ObjectHideFlags: 0
  m_CorrespondingSourceObject: {fileID: 0}
  m_PrefabInstance: {fileID: 0}
  m_PrefabAsset: {fileID: 0}
  m_GameObject: {fileID: 5848708049953165882}
  m_Enabled: 1
  m_CastShadows: 1
  m_ReceiveShadows: 1
  m_DynamicOccludee: 0
  m_MotionVectors: 1
  m_LightProbeUsage: 1
  m_ReflectionProbeUsage: 1
  m_RayTracingMode: 0
  m_RayTraceProcedural: 0
  m_RenderingLayerMask: 1
  m_RendererPriority: 0
  m_Materials:
  - {fileID: 10754, guid: 0000000000000000f000000000000000, type: 0}
  - {fileID: 10754, guid: 0000000000000000f000000000000000, type: 0}
  m_StaticBatchInfo:
    firstSubMesh: 0
    subMeshCount: 0
  m_StaticBatchRoot: {fileID: 0}
  m_ProbeAnchor: {fileID: 0}
  m_LightProbeVolumeOverride: {fileID: 0}
  m_ScaleInLightmap: 1
  m_ReceiveGI: 1
  m_PreserveUVs: 0
  m_IgnoreNormalsForChartDetection: 0
  m_ImportantGI: 0
  m_StitchLightmapSeams: 1
  m_SelectedEditorRenderState: 0
  m_MinimumChartSize: 4
  m_AutoUVMaxDistance: 0.5
  m_AutoUVMaxAngle: 89
  m_LightmapParameters: {fileID: 0}
  m_SortingLayerID: 0
  m_SortingLayer: 0
  m_SortingOrder: 0
  m_Color: {r: 115, g: 93, b: 249, a: 1}
  m_MaskInteraction: 0
  m_ShapeTexture: {fileID: 2800000, guid: b281b91a70a624a0da1c43adc1c30c7b, type: 3}
  m_Sprites:
  - {fileID: 21300000, guid: 0ae2b74b1edd14bb18dd7b65ae916a54, type: 3}
  - {fileID: 21300000, guid: 608e61deb05c54660bebf5a4dd2ee02d, type: 3}
  - {fileID: 21300000, guid: 608e61deb05c54660bebf5a4dd2ee02d, type: 3}
  - {fileID: 21300000, guid: 608e61deb05c54660bebf5a4dd2ee02d, type: 3}
  - {fileID: 21300000, guid: 608e61deb05c54660bebf5a4dd2ee02d, type: 3}
  - {fileID: 21300000, guid: 608e61deb05c54660bebf5a4dd2ee02d, type: 3}
  - {fileID: 21300000, guid: 608e61deb05c54660bebf5a4dd2ee02d, type: 3}
  - {fileID: 21300000, guid: 608e61deb05c54660bebf5a4dd2ee02d, type: 3}
  - {fileID: 21300000, guid: 608e61deb05c54660bebf5a4dd2ee02d, type: 3}
  m_LocalAABB:
    m_Center: {x: 0.00027251244, y: -0.0002721548, z: 0}
    m_Extent: {x: 2.589231, y: 1.250067, z: 0}
--- !u!114 &5848708049953165886
MonoBehaviour:
  m_ObjectHideFlags: 0
  m_CorrespondingSourceObject: {fileID: 0}
  m_PrefabInstance: {fileID: 0}
  m_PrefabAsset: {fileID: 0}
  m_GameObject: {fileID: 5848708049953165882}
  m_Enabled: 1
  m_EditorHideFlags: 0
  m_Script: {fileID: 11500000, guid: 90539df1cd5704abcb25fec9f3f5f84b, type: 3}
  m_Name: 
  m_EditorClassIdentifier: 
  m_Spline:
    m_IsOpenEnded: 0
    m_ControlPoints:
    - position: {x: -1, y: -1, z: 0}
      leftTangent: {x: 0.53597367, y: -0.00048214197, z: -0}
      rightTangent: {x: -0.53597367, y: 0.00048214197, z: 0}
      mode: 1
      height: 1
      bevelCutoff: 0
      bevelSize: 0
      spriteIndex: 0
      corner: 1
      m_CornerMode: 1
    - position: {x: -2, y: 1, z: 0}
      leftTangent: {x: -1.0023332, y: 0.0010559559, z: 0}
      rightTangent: {x: 1.0023332, y: -0.0010559559, z: -0}
      mode: 1
      height: 1
      bevelCutoff: 0
      bevelSize: 0
      spriteIndex: 0
      corner: 1
      m_CornerMode: 1
    - position: {x: 2, y: 1, z: 0}
      leftTangent: {x: -1.0005913, y: -0.0016920567, z: -0}
      rightTangent: {x: 1.0005913, y: 0.0016920567, z: 0}
      mode: 1
      height: 1
      bevelCutoff: 0
      bevelSize: 0
      spriteIndex: 0
      corner: 1
      m_CornerMode: 1
    - position: {x: 1, y: -1, z: 0}
      leftTangent: {x: 0.54391515, y: 0.0004222989, z: 0}
      rightTangent: {x: -0.54391515, y: -0.0004222989, z: -0}
      mode: 1
      height: 1
      bevelCutoff: 0
      bevelSize: 0
      spriteIndex: 0
      corner: 1
      m_CornerMode: 1
  m_SpriteShape: {fileID: 11400000, guid: f24cddf7c09a6442abbce710a6fd7397, type: 2}
  m_FillPixelPerUnit: 256
  m_StretchTiling: 1
  m_SplineDetail: 16
  m_AdaptiveUV: 1
  m_StretchUV: 0
  m_WorldSpaceUV: 0
  m_CornerAngleThreshold: 30
  m_ColliderDetail: 16
  m_ColliderOffset: 0.5
  m_UpdateCollider: 1
  m_OptimizeCollider: 1
  m_OptimizeGeometry: 1
  m_EnableTangents: 0
  m_GeometryCached: 0
  m_UTess2D: 0
--- !u!60 &5848708049953165881
PolygonCollider2D:
  m_ObjectHideFlags: 0
  m_CorrespondingSourceObject: {fileID: 0}
  m_PrefabInstance: {fileID: 0}
  m_PrefabAsset: {fileID: 0}
  m_GameObject: {fileID: 5848708049953165882}
  m_Enabled: 1
  m_Density: 1
  m_Material: {fileID: 0}
  m_IsTrigger: 0
  m_UsedByEffector: 1
  m_UsedByComposite: 0
  m_Offset: {x: 0, y: 0}
  m_SpriteTilingProperty:
    border: {x: 0, y: 0, z: 0, w: 0}
    pivot: {x: 0, y: 0}
    oldSize: {x: 0, y: 0}
    newSize: {x: 0, y: 0}
    adaptiveTilingThreshold: 0
    drawMode: 0
    adaptiveTiling: 0
  m_AutoTiling: 0
  m_Points:
    m_Paths:
    - - {x: -1.000225, y: -1.25}
      - {x: -1.1188178, y: -1.2244213}
      - {x: -1.3885436, y: -1.114564}
      - {x: -1.6036682, y: -0.9498427}
      - {x: -1.9081733, y: -0.64586526}
      - {x: -2.070627, y: -0.44757932}
      - {x: -2.3539114, y: -0.021798693}
      - {x: -2.4641333, y: 0.19576555}
      - {x: -2.545496, y: 0.41263938}
      - {x: -2.5889583, y: 0.6308825}
      - {x: -2.5741858, y: 0.8558159}
      - {x: -2.4644363, y: 1.0689557}
      - {x: -2.2578897, y: 1.2082033}
      - {x: -2.0184798, y: 1.2493161}
      - {x: 2.018362, y: 1.2493248}
      - {x: 2.257549, y: 1.2083654}
      - {x: 2.4640565, y: 1.0693963}
      - {x: 2.5741267, y: 0.8566334}
      - {x: 2.5895038, y: 0.6318505}
      - {x: 2.5329518, y: 0.3746451}
      - {x: 2.465911, y: 0.1965759}
      - {x: 2.2237046, y: -0.2372148}
      - {x: 1.9113927, y: -0.64566344}
      - {x: 1.5673921, y: -0.98503184}
      - {x: 1.3903778, y: -1.1148466}
      - {x: 1.2043858, y: -1.2097352}
      - {x: 1.0262971, y: -1.2486131}
      - {x: -0.88808584, y: -1.2500892}
      - {x: -1.000225, y: -1.25}
--- !u!252 &5848708049953165880
SurfaceEffector2D:
  m_ObjectHideFlags: 0
  m_CorrespondingSourceObject: {fileID: 0}
  m_PrefabInstance: {fileID: 0}
  m_PrefabAsset: {fileID: 0}
  m_GameObject: {fileID: 5848708049953165882}
  m_Enabled: 1
  m_UseColliderMask: 1
  m_ColliderMask:
    serializedVersion: 2
    m_Bits: 4294967295
  m_Speed: -0.1
  m_SpeedVariation: 0
  m_ForceScale: 1
  m_UseContactForce: 0
  m_UseFriction: 1
  m_UseBounce: 1
--- !u!114 &5848708049953165883
MonoBehaviour:
  m_ObjectHideFlags: 0
  m_CorrespondingSourceObject: {fileID: 0}
  m_PrefabInstance: {fileID: 0}
  m_PrefabAsset: {fileID: 0}
  m_GameObject: {fileID: 5848708049953165882}
  m_Enabled: 1
  m_EditorHideFlags: 0
  m_Script: {fileID: 11500000, guid: 4e997ccff45dd400782b7085caeb5c05, type: 3}
  m_Name: 
  m_EditorClassIdentifier: 
  bodyTransform: {fileID: 5848708049953165884}
  colorType: 0
